<?xml version="1.0" standalone="no"?>
<!DOCTYPE svg PUBLIC "-//W3C//DTD SVG 1.1//EN" "http://www.w3.org/Graphics/SVG/1.1/DTD/svg11.dtd">
<svg xmlns="http://www.w3.org/2000/svg">
<metadata>Copyright (C) 2018 by original authors @ fontello.com</metadata>
<defs>
<font id="fontello" horiz-adv-x="1000" >
<font-face font-family="fontello" font-weight="400" font-stretch="normal" units-per-em="1000" ascent="850" descent="-150" />
<missing-glyph horiz-adv-x="1000" />
<glyph glyph-name="heart" unicode="&#xe800;" d="M790 644q70-64 70-156t-70-158l-360-330-360 330q-70 66-70 158t70 156q62 58 151 58t153-58l56-52 58 52q62 58 150 58t152-58z" horiz-adv-x="860" />

<glyph glyph-name="menu" unicode="&#xe801;" d="M650 400q22 0 36-15t14-35-15-35-35-15l-600 0q-20 0-35 15t-15 35 14 35 36 15l600 0z m-600 100q-20 0-35 15t-15 35 14 35 36 15l600 0q22 0 36-15t14-35-15-35-35-15l-600 0z m600-300q22 0 36-15t14-35-15-35-35-15l-600 0q-20 0-35 15t-15 35 14 35 36 15l600 0z" horiz-adv-x="700" />

<glyph glyph-name="help" unicode="&#xe802;" d="M494 740q86-62 86-184 0-64-42-124-12-20-88-80l-46-30q-40-34-48-60-6-16-8-44 0-14-16-14l-128 0q-16 0-16 12 4 98 28 124 16 22 48 48t56 42l24 14q22 16 34 34 28 44 28 70 0 40-26 78-28 36-92 36-68 0-94-44-28-42-28-92l-166 0q6 162 114 232 70 42 166 42 130 0 214-60z m-216-636q44 0 73-30t27-74q-2-46-32-73t-74-25q-44 0-73 29t-27 75 32 73 74 25z" horiz-adv-x="580" />

<glyph glyph-name="ok" unicode="&#xe803;" d="M875 588l-535-600-340 338 123 124 196-195 420 457z" horiz-adv-x="875" />

<glyph glyph-name="arrow-right" unicode="&#xe804;" d="M0 347q0 26 18 43t43 17h642l-242 244q-19 18-19 44t19 42q17 19 42 19t44-19l390-390-390-391q-20-18-44-18t-42 18-19 44 19 43l242 242h-642q-25 0-43 18t-18 44z" horiz-adv-x="938" />

<glyph glyph-name="caret-right" unicode="&#xe805;" d="M0-2l352 352-352 352 148 148 352-351 148-149-148-148-352-352z" horiz-adv-x="648" />

<glyph glyph-name="caret-left" unicode="&#xe806;" d="M0 350l148 149 352 351 148-148-351-352 351-352-148-148-352 352z" horiz-adv-x="648" />

<glyph glyph-name="cross" unicode="&#xe807;" d="M654 349l346-346-154-154-346 346-346-346-154 154 346 346-346 346 154 154 346-346 346 346 154-154z" horiz-adv-x="1000" />

<glyph glyph-name="info" unicode="&#xe808;" d="M74 351l-56 0 0 111 335 0 0-390q0-24 17-40t39-16l55 0 0-113-446 0 0 113 56 0q23 0 40 16t16 40l0 223q0 24-16 40t-40 16z m56 334q0 112 112 112t111-112-111-111-112 111z" horiz-adv-x="482" />

<glyph glyph-name="eye" unicode="&#xe809;" d="M0 341l0 18q0 1 2 3l0 4q70 130 206 213t290 83 291-83 205-215l1-1 1-1 0-4q2-6 2-8t-2-8l0-4-1-1-1-1q-68-132-205-215t-291-83-290 83-206 215l0 2q-2 2-2 3z m66 9q65-113 183-182t250-68 250 68 183 182q-65 113-183 182t-250 68-250-68-183-182z m213 0q0 90 65 154t154 65 154-65 65-154-65-154-154-65-154 65-65 154z m32 0q0-78 54-133t133-54 133 54 55 133-55 133-133 55-133-55-54-133z m62 0q0 53 37 89t88 36q16 0 16-16t-16-15q-37 0-65-28t-29-66q0-16-15-16t-16 16z" horiz-adv-x="998" />

<glyph glyph-name="export" unicode="&#xe80b;" d="M750 60l0 56 100 82 0-188q0-20-15-35t-35-15l-750 0q-20 0-35 15t-15 35l0 550q0 22 14 36t36 14l288 0q-32-24-59-49t-39-39l-10-12-130 0 0-450 650 0z m-82 348q-166 0-242-41t-160-181q0 8 1 22t9 56 22 79 44 83 70 79 107 56 149 23l0 156 332-250-332-260 0 178z" horiz-adv-x="1000" />

<glyph glyph-name="mail" unicode="&#xe80c;" d="M0 163l0 406q0 51 36 88t89 37l750 0q53 0 89-37t36-88l0-406q0-53-36-89t-89-36l-750 0q-53 0-89 36t-36 89z m63 0q0-26 18-44t44-19l750 0q25 0 44 19t18 44l-244 183-136-101q-26-20-57-20t-57 20l-136 101z m0 39l218 164-218 164 0-328z m0 367l244-184 27-19 129-98q16-12 37-12t37 12l400 301q0 25-18 44t-44 18l-750 0q-25 0-44-18t-18-44z m656-203l218-164 0 328z" horiz-adv-x="1000" />

<glyph glyph-name="twitter" unicode="&#xf309;" d="M920 636q-36-54-94-98l0-24q0-130-60-250t-186-203-290-83q-160 0-290 84 14-2 46-2 132 0 234 80-62 2-110 38t-66 94q10-4 34-4 26 0 50 6-66 14-108 66t-42 120l0 2q36-20 84-24-84 58-84 158 0 48 26 94 154-188 390-196-6 18-6 42 0 78 55 133t135 55q82 0 136-58 60 12 120 44-20-66-82-104 56 8 108 30z" horiz-adv-x="920" />

<glyph glyph-name="facebook" unicode="&#xf30c;" d="M500 644l-142 0q-14 0-25-15t-11-37l0-102 178 0 0-148-178 0 0-442-170 0 0 442-152 0 0 148 152 0 0 86q0 94 59 159t147 65l142 0 0-156z" horiz-adv-x="500" />
</font>
</defs>
</svg>